{
  "182": {
    "name": "gitlab-runner-test",
    "reason": "To verify and test Trusted GitLab Runners"
  },
  "339": {
    "name": "gitlab-trusted-runner",
    "reason": "Root/registration project for Trusted Runners"
  },
  "881": {
    "name": "repos/releng/buildkit",
    "reason": "WMF fork of BuildKit used to build container images in GitLab CI",
    "dockerfile": true
  },
  "9": {
    "name": "repos/releng/blubber",
    "reason": "Blubber is used by WMF projects to build container images in GitLab CI"
  },
  "319": {
    "name": "repos/releng/gitlab-cloud-runner",
    "reason": "Provisions cloud resources in Digital Ocean and its credentials need protection."
  },
  "865": {
    "name": "repos/releng/scap",
    "reason": "T321629: Scap needs access to the trusted runners to publish doc updates."
  },
  "943": {
    "name": "repos/releng/gitlab-terraform-images",
    "reason": "T322344: Publishes a version of GitLab upstream terraform-images that uses WMF base images."
  },
  "912": {
    "name": "repos/releng/reggie",
    "reason": "T323149: Reggie will be our caching registry for the deployment pipeline in GitLab CI."
  },
  "348": {
    "name": "repos/releng/jwt-authorizer",
    "reason": "Provides JWT based auth to just about any service including the production and gitlab-cloud-runner registries."
  },
  "1764": {
    "name": "repos/releng/zuul/zuul",
    "reason": "WMF fork of Zuul CI"
  },
  "1008": {
    "name": "repos/abstract-wiki/ci-images",
    "reason": "Publish images Abstract Wikipedia team uses for CI to docker-registry.wikimedia.org."
  },
  "1284": {
    "name": "repos/abstract-wiki/wikifunctions/function-orchestrator",
    "reason": "T334397: Publish function-orchestrator container images for Wikifunctions"
  },
  "1292": {
    "name": "repos/abstract-wiki/wikifunctions/function-evaluator",
    "reason": "T334398: Publish function-evaluator container images for Wikifunctions"
  },
  "906": {
    "name": "repos/releng/kokkuri",
    "reason": "Kokkuri now has its own image and needs to publish it."
  },
  "93": {
    "name": "repos/data-engineering/airflow-dags",
    "reason": "T326570: Migrate custom gitlab runner that runs Dockerfiles to releng's new production infra"
  },
  "359": {
    "name": "repos/data-engineering/conda-analytics",
    "reason": "Migrate custom gitlab runner that runs Dockerfiles to releng's new production infra"
  },
  "1490": {
    "name": "repos/data-engineering/datahub",
    "reason": "T341194: datahub build pipeline"
  },
  "1015": {
    "name": "repos/data-engineering/mediawiki-event-enrichment",
    "reason": "Provides a deployment pipeline Docker image for the Mediawiki Event Enrichment applications"
  },
  "2026": {
    "name": "repos/data-engineering/dataset-config-store-service",
    "reason": "T357434 Provides a deployment pipeline Docker image for the dataset config store service"
  },
  "1591": {
    "name": "repos/data-engineering/spark",
    "reason": "T346244"
  },
  "1064": {
    "name": "repos/search-platform/flink-rdf-streaming-updater",
    "reason": "Provides a deployment pipeline Docker image for the WDQS/WCQS Streaming Updater"
  },
  "1165": {
    "name": "repos/releng/docker-hub-mirror",
    "reason": "Provides an image for configuring containerd to use a docker hub mirror"
  },
  "73": {
    "name": "repos/releng/docker-gc",
    "reason": "Provides images for cleaning up stale Docker resources"
  },
  "1197": {
    "name": "repos/search-platform/cirrussearch-elasticsearch-image",
    "reason": "Provides a development image for CirrusSearch"
  },
  "1221": {
    "name": "repos/search-platform/cirrus-streaming-updater",
    "reason": "Provides production image for cirrus search based elastic search update pipeline"
  },
  "1319": {
    "name": "repos/sre/miscweb/annualreport",
    "reason": "Provide images for annualreport miscweb service running on kubernetes"
  },
  "1364": {
    "name": "repos/sre/miscweb/bienvenida",
    "reason": "Provide images for bienvenida miscweb service running on kubernetes"
  },
  "1335": {
    "name": "repos/releng/docpub",
    "reason": "T336168: Publishes docs for other projects"
  },
  "1397": {
    "name": "repos/mediawiki/services/ipoid",
    "reason": "T337714: Migrate mediawiki/services/ipoid to GitLab"
  },
  "1312": {
    "name": "repos/mediawiki/services/kask",
    "reason": "T335691: Migrate mediawiki/services/kask to GitLab"
  },
  "1598": {
    "name": "repos/mediawiki/services/mathoid",
    "reason": "T344747: Migrate mediawiki/services/mathoid to GitLab"
  },
  "1416": {
    "name": "repos/sre/miscweb/TransparencyReport",
    "reason": "T338781: Provide images for transparency miscweb service running on kubernetes"
  },
  "1431": {
    "name": "repos/sre/miscweb/statictendril",
    "reason": "T340182: Provide images for statictendril miscweb service running on kubernetes"
  },
  "1471": {
    "name": "repos/cloud/cloud-vps/horizon/deploy",
    "reason": "T341640: Move Horizon deploy to a Docker container"
  },
  "1521": {
    "name": "repos/sre/miscweb/research-landing-page",
    "reason": "T334511: Provide images for research landing page miscweb service running on kubernetes"
  },
  "1522": {
    "name": "repos/sre/miscweb/wikiworkshop",
    "reason": "T334511: Provide images for wikiworkshop miscweb service running on kubernetes"
  },
  "1564": {
    "name": "repos/sre/miscweb/bugzilla",
    "reason": "T300171: Provide images for bugzilla miscweb service running on kubernetes"
  },
  "1602": {
    "name": "repos/sre/miscweb/static-codereview",
    "reason": "T346309: Provide images for static-codereview miscweb service running on kubernetes"
  },
  "2139": {
    "name": "repos/qte/catalyst/catalyst-api",
    "reason": "T361885: Catalyst API should be deployable once merged to prod main (including image building and publishing)"
  },
  "2143":{
    "name": "repos/qte/catalyst/patchdemo",
    "reason": "T360912: Publishing docker images for Catalyst Patchdemo"
  },
  "1866": {
    "name": "repos/data-engineering/kerberos-kinit",
    "reason": "T352406: Provide docker image with kerberos-related tooling"
  },
  "1862": {
    "name": "repos/data-engineering/superset",
    "reason": "T352165: Publishing container images for Superset on DSE-K8S"
  },
  "1933": {
    "name": "sre/miscweb/design-landing-page",
    "reason": "T350791: Provide images for design miscweb service running on kubernetes"
  },
  "1934": {
    "name": "sre/miscweb/design-strategy",
    "reason": "T350791: Provide images for design miscweb service running on kubernetes"
  },
  "1935": {
    "name": "sre/miscweb/design-blog",
    "reason": "T350791: Provide images for design miscweb service running on kubernetes"
  },
  "1942": {
    "name": "repos/releng/k8s-pvc-cleaner",
    "reason": "T351478: provide images for k8s-pvc-cleaner to run it on kubernetes"
  },
  "1985": {
    "name": "repos/sre/miscweb/design-style-guide",
    "reason": "T350791: Provide images for design miscweb service running on kubernetes"
  },
  "1456": {
    "name": "repos/ci-tools/libup",
    "reason": "T341417: Publish container images"
  },
  "2115": {
    "name": "repos/mediawiki/services/speechoid/sox-proxy",
    "reason": "T351223: Publish Docker images"
  },
  "2130": {
    "name": "repos/data-engineering/ceph-csi",
    "reason": "T327267: Integrate DSE-K8S with Ceph storage"
  },
  "2117": {
    "name": "repos/data-engineering/mpic",
    "reason": "T361345: Create the MPIC docker image build pipeline"
  }
}
